%YAML 1.1
%TAG !u! tag:unity3d.com,2011:
--- !u!74 &7400000
AnimationClip:
  m_ObjectHideFlags: 0
  m_CorrespondingSourceObject: {fileID: 0}
  m_PrefabInstance: {fileID: 0}
  m_PrefabAsset: {fileID: 0}
  m_Name: old_player_run
  serializedVersion: 6
  m_Legacy: 0
  m_Compressed: 0
  m_UseHighQualityCurve: 1
  m_RotationCurves: []
  m_CompressedRotationCurves: []
  m_EulerCurves: []
  m_PositionCurves: []
  m_ScaleCurves: []
  m_FloatCurves: []
  m_PPtrCurves:
  - curve:
    - time: 0
      value: {fileID: 21300000, guid: e8355c5869ead784b863cd5d05b0711d, type: 3}
    - time: 0.04
      value: {fileID: 21300000, guid: 35ce80ded322b584bbf23f84f7de00a1, type: 3}
    - time: 0.08
      value: {fileID: 21300000, guid: 57c269aeab8a1a54fb64e174ec397d03, type: 3}
    - time: 0.12
      value: {fileID: 21300000, guid: e5900c8d5f39c9c4c8f2475bf611718b, type: 3}
    - time: 0.16
      value: {fileID: 21300000, guid: 1463878e3abe98b4eb193222839a126e, type: 3}
    - time: 0.2
      value: {fileID: 21300000, guid: 2568569b6736f2846ac45a2704861457, type: 3}
    - time: 0.24
      value: {fileID: 21300000, guid: bf8c7641be7a23946a47588dd82667a8, type: 3}
    - time: 0.28
      value: {fileID: 21300000, guid: cd505509c0200374b8cba7eb7dab357e, type: 3}
    - time: 0.32
      value: {fileID: 21300000, guid: 290b79a547cd7c94388c7fef9234dbca, type: 3}
    - time: 0.36
      value: {fileID: 21300000, guid: b48ee7a7be028254186e4593a671da10, type: 3}
    - time: 0.4
      value: {fileID: 21300000, guid: d841e06ddc64d174c9a942524c2a1154, type: 3}
    - time: 0.44
      value: {fileID: 21300000, guid: 244be7e096212e647a8fd5567785f6bd, type: 3}
    - time: 0.48
      value: {fileID: 21300000, guid: 36c4bd61d3772094fabccc03b5d9e4fb, type: 3}
    - time: 0.52
      value: {fileID: 21300000, guid: 440f357cf84b68d45b19b6255ea94aa5, type: 3}
    attribute: m_Sprite
    path: 
    classID: 212
    script: {fileID: 0}
  m_SampleRate: 25
  m_WrapMode: 0
  m_Bounds:
    m_Center: {x: 0, y: 0, z: 0}
    m_Extent: {x: 0, y: 0, z: 0}
  m_ClipBindingConstant:
    genericBindings:
    - serializedVersion: 2
      path: 0
      attribute: 0
      script: {fileID: 0}
      typeID: 212
      customType: 23
      isPPtrCurve: 1
    pptrCurveMapping:
    - {fileID: 21300000, guid: e8355c5869ead784b863cd5d05b0711d, type: 3}
    - {fileID: 21300000, guid: 35ce80ded322b584bbf23f84f7de00a1, type: 3}
    - {fileID: 21300000, guid: 57c269aeab8a1a54fb64e174ec397d03, type: 3}
    - {fileID: 21300000, guid: e5900c8d5f39c9c4c8f2475bf611718b, type: 3}
    - {fileID: 21300000, guid: 1463878e3abe98b4eb193222839a126e, type: 3}
    - {fileID: 21300000, guid: 2568569b6736f2846ac45a2704861457, type: 3}
    - {fileID: 21300000, guid: bf8c7641be7a23946a47588dd82667a8, type: 3}
    - {fileID: 21300000, guid: cd505509c0200374b8cba7eb7dab357e, type: 3}
    - {fileID: 21300000, guid: 290b79a547cd7c94388c7fef9234dbca, type: 3}
    - {fileID: 21300000, guid: b48ee7a7be028254186e4593a671da10, type: 3}
    - {fileID: 21300000, guid: d841e06ddc64d174c9a942524c2a1154, type: 3}
    - {fileID: 21300000, guid: 244be7e096212e647a8fd5567785f6bd, type: 3}
    - {fileID: 21300000, guid: 36c4bd61d3772094fabccc03b5d9e4fb, type: 3}
    - {fileID: 21300000, guid: 440f357cf84b68d45b19b6255ea94aa5, type: 3}
  m_AnimationClipSettings:
    serializedVersion: 2
    m_AdditiveReferencePoseClip: {fileID: 0}
    m_AdditiveReferencePoseTime: 0
    m_StartTime: 0
    m_StopTime: 0.56
    m_OrientationOffsetY: 0
    m_Level: 0
    m_CycleOffset: 0
    m_HasAdditiveReferencePose: 0
    m_LoopTime: 1
    m_LoopBlend: 0
    m_LoopBlendOrientation: 0
    m_LoopBlendPositionY: 0
    m_LoopBlendPositionXZ: 0
    m_KeepOriginalOrientation: 0
    m_KeepOriginalPositionY: 1
    m_KeepOriginalPositionXZ: 0
    m_HeightFromFeet: 0
    m_Mirror: 0
  m_EditorCurves: []
  m_EulerEditorCurves: []
  m_HasGenericRootTransform: 0
  m_HasMotionFloatCurves: 0
  m_Events: []
